[
  {
    "title": "Group 1",
    "data": [
      {
        "key": "countable",
        "value": "/api/v2/item-attribute/1/"
      },
      {
        "key": "consumable",
        "value": "/api/v2/item-attribute/2/"
      },
      {
        "key": "usable-in-battle",
        "value": "/api/v2/item-attribute/4/"
      },
      {
        "key": "holdable",
        "value": "/api/v2/item-attribute/5/"
      }
    ]
  },
  {
    "title": "Group 2",
    "data": [
      {
        "key": "01",
        "value": "/api/v2/item-attribute/5/"
      },
      {
        "key": "02",
        "value": "/api/v2/item-attribute/5/"
      },
      {
        "key": "03",
        "value": "/api/v2/item-attribute/5/"
      },
      {
        "key": "04",
        "value": "/api/v2/item-attribute/5/"
      }
    ]
  },
  {
    "title": "Group 3",
    "data": [
      {
        "key": "05",
        "value": "/api/v2/item-attribute/5/"
      },
      {
        "key": "06",
        "value": "/api/v2/item-attribute/5/"
      },
      {
        "key": "07",
        "value": "/api/v2/item-attribute/5/"
      },
      {
        "key": "08",
        "value": "/api/v2/item-attribute/5/"
      }
    ]
  }
]